<?xml version="1.0" encoding="utf-8"?>
<!-- Generator: Adobe Illustrator 28.3.0, SVG Export Plug-In . SVG Version: 6.00 Build 0)  -->
<svg version="1.1" id="Layer_1" xmlns="http://www.w3.org/2000/svg" xmlns:xlink="http://www.w3.org/1999/xlink" x="0px" y="0px"
	 viewBox="0 0 48 48" style="enable-background:new 0 0 48 48;" xml:space="preserve">
<path d="M29.6,15.7c0-1.6-0.5-2.9-1.6-3.8c-1-1-2.4-1.4-4.1-1.4c-1.1,0-2,0.2-2.9,0.7c-0.9,0.5-1.6,1.2-2.2,2
	c-0.4,0.5-0.9,0.9-1.5,1s-1.2,0.1-1.8-0.2c-0.6-0.4-1-0.8-1.2-1.4c-0.1-0.5,0-1.1,0.4-1.8c1-1.5,2.3-2.7,3.9-3.5
	C20.3,6.4,22.1,6,24,6c3.1,0,5.6,0.9,7.5,2.6c1.9,1.7,2.9,4,2.9,6.8c0,1.5-0.3,2.9-1,4.2c-0.7,1.3-1.8,2.7-3.3,4.2
	c-1.2,1.2-2.1,2.1-2.5,2.8s-0.7,1.5-0.9,2.4c-0.1,0.7-0.4,1.3-0.9,1.8s-1.1,0.7-1.7,0.7c-0.7,0-1.2-0.2-1.7-0.7
	c-0.5-0.4-0.7-1-0.7-1.6c0-1.1,0.3-2.2,0.9-3.3c0.6-1.1,1.5-2.2,2.8-3.3c1.6-1.4,2.7-2.7,3.4-3.7C29.3,17.8,29.6,16.8,29.6,15.7z
	 M23.9,44c-1,0-1.8-0.3-2.5-1c-0.7-0.7-1-1.5-1-2.5c0-1,0.3-1.8,1-2.5c0.7-0.7,1.5-1,2.5-1c1,0,1.8,0.3,2.5,1c0.7,0.7,1,1.5,1,2.5
	c0,1-0.3,1.8-1,2.5C25.7,43.7,24.9,44,23.9,44z"/>
</svg>
